…
remdr$close()
rd$server$stop()
system("taskkill /im java.exe /f", intern=FALSE, ignore.stdout=FALSE)

election_res_2020
```



`election_res_2020` that stores the scraped data should look like the following:

```
# A tibble: 4,588 x 4
   state_county     trump biden others
   <chr>            <dbl> <dbl>  <dbl>
 1 alabama,autauga  19838  7503    429
 2 alabama,baldwin  83544 24578   1557
 3 alabama,barbour   5622  4816     80
 4 alabama,bibb      7525  1986     84
 5 alabama,blount   24711  2640    237
 6 alabama,bullock   1146  3446     21
 7 alabama,butler    5458  3965     65
 8 alabama,calhoun  35101 15216    666
 9 alabama,chambers  8753  6365    166
10 alabama,cherokee 10583  1624     94
# ... with 4,578 more rows
…
election_result16 <- read.csv("USPresidential08-16.csv") %>% select(fips = fips_code, ends_with("2016"), -(oth_2016)) %>% inner_join(as.tibble(county.fips), by = "fips") %>% select(ends_with("2016"), state_county = polyname)

election_res_2016 <- election_result16 %>% filter(str_extract(election_result16$state_county, "[A-z]+") %in% flipped_states) %>% as_tibble()

election_res_2016
```


The layout of `election_res_2016` should look like the following:

```
# A tibble: 396 x 4
   total_2016 dem_2016 gop_2016 state_county           
        <dbl>    <dbl>    <dbl> <chr>                  
 1      18467     6431    11112 michigan,delta         
 2       6743      904     5676 pennsylvania,fulton    
 3     284832   169169   106559 pennsylvania,delaware  
 4       3572     2695      841 georgia,hancock        
 5       3577     1186     2343 georgia,seminole       
 6      33848    16050    15871 wisconsin,sauk         
 7      96945    34436    58941 pennsylvania,washington
 8      14757     6774     7239 michigan,leelanau      
 9       6285      619     5561 georgia,brantley       
10       3486     1156     2158 michigan,baraga        
# ... with 386 more rows
```
…
election_res_2020$state_county[election_res_2020$state_county == "georgia,dekalb"] = "georgia,de kalb"
election_res_2020$state_county[election_res_2020$state_county == "michigan,st. clair"] = "michigan,st clair"
election_res_2020$state_county[election_res_2020$state_county == "michigan,st. joseph"] = "michigan,st joseph"
election_res_2020$state_county[election_res_2020$state_county == "wisconsin,st. croix"] = "wisconsin,st croix"

election_res_1620 <- election_res_2016 %>% inner_join(election_res_2020, by ="state_county") %>% arrange(state_county) %>% mutate(total_2020 = trump + biden + others, dem_2020 = biden, gop_2020 = trump) %>% select(state_county, ends_with("2016"), ends_with("2020")) %>% as_tibble()

election_res_1620
```


The layout of `election_res_1620` should look like the following:

```
# A tibble: 396 x 7
   state_county     total_2016 dem_2016 gop_2016 total_2020 dem_2020 gop_2020
   <chr>                 <dbl>    <dbl>    <dbl>      <dbl>    <dbl>    <dbl>
 1 arizona,apache        18659    12196     5315      35183    23293    11442
 2 arizona,cochise       43147    15291    25036      60473    23732    35557
 3 arizona,coconino      44929    25308    16573      73346    44698    27052
 4 arizona,gila          21398     6746    13672      27678     8943    18377
 5 arizona,graham        11939     3301     8025      14996     4034    10749
 6 arizona,greenlee       3243     1092     1892       3688     1182     2433
 7 arizona,la paz         4931     1318     3381       7460     2236     5129
 8 arizona,maricopa    1201934   549040   590465    2069475  1040774   995665
 9 arizona,mohave        74189    16485    54656     104705    24831    78535
10 arizona,navajo        35409    15362    18165      51783    23383    27657
# ... with 386 more rows
```
…
