ISOM3390 Winter 2021 - Take Home Exam
…
election_res_2020 <- as_tibble(election_res_2020)
write.csv(election_res_2020, "election_res_2020.csv")

remdr$close()
rd$server$stop()

## [1] TRUE

system("taskkill /im java.exe /f", intern=FALSE, ignore.stdout=FALSE)

## [1] 0

election_res_2020

## # A tibble: 4,593 x 4
##    state_county     trump biden others
##    <chr>            <dbl> <dbl>  <dbl>
##  1 alabama,autauga  19838  7503    429
##  2 alabama,baldwin  83544 24578   1557
##  3 alabama,barbour   5622  4816     80
##  4 alabama,bibb      7525  1986     84
##  5 alabama,blount   24711  2640    237
##  6 alabama,bullock   1146  3446     21
##  7 alabama,butler    5458  3965     65
##  8 alabama,calhoun  35101 15216    666
##  9 alabama,chambers  8753  6365    166
## 10 alabama,cherokee 10583  1624     94
## # ... with 4,583 more rows

election_res_2020 that stores the scraped data should look like the following:

# A tibble: 4,588 x 4
   state_county     trump biden others
   <chr>            <dbl> <dbl>  <dbl>
 1 alabama,autauga  19838  7503    429
 2 alabama,baldwin  83544 24578   1557
 3 alabama,barbour   5622  4816     80
 4 alabama,bibb      7525  1986     84
 5 alabama,blount   24711  2640    237
 6 alabama,bullock   1146  3446     21
 7 alabama,butler    5458  3965     65
 8 alabama,calhoun  35101 15216    666
 9 alabama,chambers  8753  6365    166
10 alabama,cherokee 10583  1624     94
# ... with 4,578 more rows
…
election_result16 <- read.csv("USPresidential08-16.csv") %>% select(fips = fips_code, ends_with("2016"), -(oth_2016)) %>% inner_join(as.tibble(county.fips), by = "fips") %>% select(ends_with("2016"), state_county = polyname)

## Warning: `as.tibble()` is deprecated as of tibble 2.0.0.
## Please use `as_tibble()` instead.
## The signature and semantics have changed, see `?as_tibble`.
## This warning is displayed once every 8 hours.
## Call `lifecycle::last_warnings()` to see where this warning was generated.

election_res_2016 <- election_result16 %>% filter(str_extract(election_result16$state_county, "[A-z]+") %in% flipped_states) %>% as_tibble()

election_res_2016

## # A tibble: 396 x 4
##    total_2016 dem_2016 gop_2016 state_county           
##         <int>    <int>    <int> <chr>                  
##  1      18467     6431    11112 michigan,delta         
##  2       6743      904     5676 pennsylvania,fulton    
##  3     284832   169169   106559 pennsylvania,delaware  
##  4       3572     2695      841 georgia,hancock        
##  5       3577     1186     2343 georgia,seminole       
##  6      33848    16050    15871 wisconsin,sauk         
##  7      96945    34436    58941 pennsylvania,washington
##  8      14757     6774     7239 michigan,leelanau      
##  9       6285      619     5561 georgia,brantley       
## 10       3486     1156     2158 michigan,baraga        
## # ... with 386 more rows

The layout of election_res_2016 should look like the following:

# A tibble: 396 x 4
   total_2016 dem_2016 gop_2016 state_county           
        <dbl>    <dbl>    <dbl> <chr>                  
 1      18467     6431    11112 michigan,delta         
 2       6743      904     5676 pennsylvania,fulton    
 3     284832   169169   106559 pennsylvania,delaware  
 4       3572     2695      841 georgia,hancock        
 5       3577     1186     2343 georgia,seminole       
 6      33848    16050    15871 wisconsin,sauk         
 7      96945    34436    58941 pennsylvania,washington
 8      14757     6774     7239 michigan,leelanau      
 9       6285      619     5561 georgia,brantley       
10       3486     1156     2158 michigan,baraga        
# ... with 386 more rows
…
Create a data frame that combines county-level results for the 5 states. Name the resulting data frame election_res_1620:

# Provide your code to create election_res_1620
# You are not allowed to use any for/while/repeat loop in this chunk 

election_res_2020$state_county[election_res_2020$state_county == "georgia,dekalb"] = "georgia,de kalb"
election_res_2020$state_county[election_res_2020$state_county == "michigan,st. clair"] = "michigan,st clair"
election_res_2020$state_county[election_res_2020$state_county == "michigan,st. joseph"] = "michigan,st joseph"
election_res_2020$state_county[election_res_2020$state_county == "wisconsin,st. croix"] = "wisconsin,st croix"

election_res_1620 <- election_res_2016 %>% inner_join(election_res_2020, by ="state_county") %>% arrange(state_county) %>% mutate(total_2020 = trump + biden + others, dem_2020 = biden, gop_2020 = trump) %>% select(state_county, ends_with("2016"), ends_with("2020")) %>% as_tibble()

election_res_1620

## # A tibble: 396 x 7
##    state_county     total_2016 dem_2016 gop_2016 total_2020 dem_2020 gop_2020
##    <chr>                 <int>    <int>    <int>      <dbl>    <dbl>    <dbl>
##  1 arizona,apache        18659    12196     5315      35183    23293    11442
##  2 arizona,cochise       43147    15291    25036      60473    23732    35557
##  3 arizona,coconino      44929    25308    16573      73346    44698    27052
##  4 arizona,gila          21398     6746    13672      27678     8943    18377
##  5 arizona,graham        11939     3301     8025      14996     4034    10749
##  6 arizona,greenlee       3243     1092     1892       3688     1182     2433
##  7 arizona,la paz         4931     1318     3381       7460     2236     5129
##  8 arizona,maricopa    1201934   549040   590465    2069475  1040774   995665
##  9 arizona,mohave        74189    16485    54656     104705    24831    78535
## 10 arizona,navajo        35409    15362    18165      51783    23383    27657
## # ... with 386 more rows

The layout of election_res_1620 should look like the following:

# A tibble: 396 x 7
   state_county     total_2016 dem_2016 gop_2016 total_2020 dem_2020 gop_2020
   <chr>                 <dbl>    <dbl>    <dbl>      <dbl>    <dbl>    <dbl>
 1 arizona,apache        18659    12196     5315      35183    23293    11442
 2 arizona,cochise       43147    15291    25036      60473    23732    35557
 3 arizona,coconino      44929    25308    16573      73346    44698    27052
 4 arizona,gila          21398     6746    13672      27678     8943    18377
 5 arizona,graham        11939     3301     8025      14996     4034    10749
 6 arizona,greenlee       3243     1092     1892       3688     1182     2433
 7 arizona,la paz         4931     1318     3381       7460     2236     5129
 8 arizona,maricopa    1201934   549040   590465    2069475  1040774   995665
 9 arizona,mohave        74189    16485    54656     104705    24831    78535
10 arizona,navajo        35409    15362    18165      51783    23383    27657
# ... with 386 more rows
…
Suppose that p is the name you to this ggplot object. You can directly use the code provided at the end of the following code chunk to style the plot.

Drop the chunk option eval=F if you want to knit the .rmd file.

#%>% group_by(state_county) %>% summarise("dem/2016" = sum(dem_2016) , "dem/2020" = sum(dem_2020), "gop/2016" = sum(gop_2016), "gop/2020" = sum(gop_2020))
# Provide your code to wrangle the data and create the plot
# You are not allowed to use any for/while/repeat loop in this chunk 
# Use inner_join if you want to join two data frames

state <- as_tibble(map_data("state"))
county <- as_tibble(map_data("county"))
county <- county %>% unite(col = state_county, region, subregion, sep = ",")
election_res_1620

## # A tibble: 396 x 7
##    state_county     total_2016 dem_2016 gop_2016 total_2020 dem_2020 gop_2020
##    <chr>                 <int>    <int>    <int>      <dbl>    <dbl>    <dbl>
##  1 arizona,apache        18659    12196     5315      35183    23293    11442
##  2 arizona,cochise       43147    15291    25036      60473    23732    35557
##  3 arizona,coconino      44929    25308    16573      73346    44698    27052
##  4 arizona,gila          21398     6746    13672      27678     8943    18377
##  5 arizona,graham        11939     3301     8025      14996     4034    10749
##  6 arizona,greenlee       3243     1092     1892       3688     1182     2433
##  7 arizona,la paz         4931     1318     3381       7460     2236     5129
##  8 arizona,maricopa    1201934   549040   590465    2069475  1040774   995665
##  9 arizona,mohave        74189    16485    54656     104705    24831    78535
## 10 arizona,navajo        35409    15362    18165      51783    23383    27657
## # ... with 386 more rows

polygon_data <- election_res_1620  %>% mutate(percentage_change_2016 = (dem_2016 - gop_2016) / total_2016, percentage_change_2020 = (dem_2016 - gop_2016) / total_2020) %>% select(state_county, starts_with("percentage")) %>%pivot_longer(cols = -(state_county), names_to = "year", values_to = "percent_change" ) %>% inner_join(county, by = "state_county")
polygon_data$year <-str_replace(polygon_data$year, ".+_", "")
polygon_data

## # A tibble: 21,860 x 7
##    state_county   year  percent_change  long   lat group order
##    <chr>          <chr>          <dbl> <dbl> <dbl> <dbl> <int>
##  1 arizona,apache 2016           0.369 -109.  36.0    68  3160
##  2 arizona,apache 2016           0.369 -109.  35.0    68  3161
##  3 arizona,apache 2016           0.369 -109.  34.6    68  3162
##  4 arizona,apache 2016           0.369 -109.  33.8    68  3163
##  5 arizona,apache 2016           0.369 -109.  33.8    68  3164
##  6 arizona,apache 2016           0.369 -109.  33.8    68  3165
##  7 arizona,apache 2016           0.369 -109.  33.8    68  3166
##  8 arizona,apache 2016           0.369 -109.  33.8    68  3167
##  9 arizona,apache 2016           0.369 -109.  33.8    68  3168
## 10 arizona,apache 2016           0.369 -109.  33.7    68  3169
## # ... with 21,850 more rows
…
